{
    "folders" : ["test"],
    "fileExtensions" : ["js"],
    "output" : "output.css",
    "mobileFirst" : false,
    "variables" : { 
        "mainColor" : "red" 
    },
    "overrides" : {
        "custom" : "margin"
    },
    "verbose" : false,
    "alwaysInclude" : ["bcg_@mainColor", "po_static"]
}